<?xml version="1.0" encoding="UTF-8"?>
<UndoHistory>
  <UndoTransaction tv-sec="1670393479" tv-usec="622423" name="capture">
    <StatefulDiffCommand obj-id="238" type-name="ARDOUR::AudioPlaylist">
      <Changes>
        <Regions>
          <Add id="41823"/>
        </Regions>
      </Changes>
    </StatefulDiffCommand>
  </UndoTransaction>
  <UndoTransaction tv-sec="1670393560" tv-usec="491072" name="capture">
    <StatefulDiffCommand obj-id="238" type-name="ARDOUR::AudioPlaylist">
      <Changes>
        <Regions>
          <Add id="42423"/>
        </Regions>
      </Changes>
    </StatefulDiffCommand>
  </UndoTransaction>
  <UndoTransaction tv-sec="1670393575" tv-usec="165700" name="capture">
    <StatefulDiffCommand obj-id="238" type-name="ARDOUR::AudioPlaylist">
      <Changes>
        <Regions>
          <Add id="42612"/>
        </Regions>
      </Changes>
    </StatefulDiffCommand>
  </UndoTransaction>
  <UndoTransaction tv-sec="1670393577" tv-usec="218502" name="delete objects">
    <StatefulDiffCommand obj-id="42423" type-name="ARDOUR::AudioRegion">
      <Changes>
        <layering-index from="60" to="59"/>
      </Changes>
    </StatefulDiffCommand>
    <StatefulDiffCommand obj-id="42612" type-name="ARDOUR::AudioRegion">
      <Changes>
        <layering-index from="61" to="60"/>
      </Changes>
    </StatefulDiffCommand>
    <StatefulDiffCommand obj-id="238" type-name="ARDOUR::AudioPlaylist">
      <Changes>
        <Regions>
          <Remove id="41823"/>
        </Regions>
      </Changes>
    </StatefulDiffCommand>
    <MementoCommand obj-id="49" type-name="SelectionMemento">
      <SelectionMemento mouse-mode="MouseObject" zoom="260" left-frame="15196127" y-origin="0">
        <Selection>
          <Regions>
            <Region id="41823"/>
          </Regions>
          <Marker id="39144" start="0"/>
        </Selection>
      </SelectionMemento>
      <SelectionMemento mouse-mode="MouseObject" zoom="260" left-frame="15196127" y-origin="0">
        <Selection>
          <Marker id="39144" start="0"/>
        </Selection>
      </SelectionMemento>
    </MementoCommand>
  </UndoTransaction>
  <UndoTransaction tv-sec="1670393580" tv-usec="559022" name="region drag">
    <StatefulDiffCommand obj-id="42612" type-name="ARDOUR::AudioRegion">
      <Changes>
        <length from="a921137280@a89211048360" to="a921137280@a89174357160"/>
      </Changes>
    </StatefulDiffCommand>
    <MementoCommand obj-id="49" type-name="SelectionMemento">
      <SelectionMemento mouse-mode="MouseObject" zoom="130" left-frame="15129047" y-origin="0">
        <Selection>
          <Regions>
            <Region id="42612"/>
          </Regions>
          <Marker id="39144" start="0"/>
        </Selection>
      </SelectionMemento>
      <SelectionMemento mouse-mode="MouseObject" zoom="130" left-frame="15129047" y-origin="0">
        <Selection>
          <Regions>
            <Region id="42612"/>
          </Regions>
          <Marker id="39144" start="0"/>
        </Selection>
      </SelectionMemento>
    </MementoCommand>
  </UndoTransaction>
  <UndoTransaction tv-sec="1670393582" tv-usec="17296" name="Region start trim">
    <StatefulDiffCommand obj-id="42612" type-name="ARDOUR::AudioRegion">
      <Changes>
        <start from="a0" to="a46005120"/>
        <length from="a921137280@a89174357160" to="a875132160@a89220362280"/>
        <Envelope>
          <from>
            <AutomationList automation-id="envelope" id="43258" interpolation-style="Exponential" time-domain="AudioTime" state="Off">
              <events>a0 1
a921137280 1
</events>
            </AutomationList>
          </from>
          <to>
            <AutomationList automation-id="envelope" id="43257" interpolation-style="Exponential" time-domain="AudioTime" state="Off">
              <events>a0 1.0000001000000001
a875132160 1
</events>
            </AutomationList>
          </to>
        </Envelope>
      </Changes>
    </StatefulDiffCommand>
    <MementoCommand obj-id="49" type-name="SelectionMemento">
      <SelectionMemento mouse-mode="MouseObject" zoom="130" left-frame="15129047" y-origin="0">
        <Selection>
          <Regions>
            <Region id="42612"/>
          </Regions>
          <Marker id="39144" start="0"/>
        </Selection>
      </SelectionMemento>
      <SelectionMemento mouse-mode="MouseObject" zoom="130" left-frame="15129047" y-origin="0">
        <Selection>
          <Regions>
            <Region id="42612"/>
          </Regions>
          <Marker id="39144" start="0"/>
        </Selection>
      </SelectionMemento>
    </MementoCommand>
  </UndoTransaction>
  <UndoTransaction tv-sec="1670393582" tv-usec="970908" name="region drag">
    <StatefulDiffCommand obj-id="42612" type-name="ARDOUR::AudioRegion">
      <Changes>
        <length from="a875132160@a89220362280" to="a875132160@a89184435480"/>
      </Changes>
    </StatefulDiffCommand>
    <MementoCommand obj-id="49" type-name="SelectionMemento">
      <SelectionMemento mouse-mode="MouseObject" zoom="130" left-frame="15129047" y-origin="0">
        <Selection>
          <Regions>
            <Region id="42612"/>
          </Regions>
          <Marker id="39144" start="0"/>
        </Selection>
      </SelectionMemento>
      <SelectionMemento mouse-mode="MouseObject" zoom="130" left-frame="15129047" y-origin="0">
        <Selection>
          <Regions>
            <Region id="42612"/>
          </Regions>
          <Marker id="39144" start="0"/>
        </Selection>
      </SelectionMemento>
    </MementoCommand>
  </UndoTransaction>
  <UndoTransaction tv-sec="1670393597" tv-usec="981104" name="capture">
    <StatefulDiffCommand obj-id="238" type-name="ARDOUR::AudioPlaylist">
      <Changes>
        <Regions>
          <Add id="43397"/>
        </Regions>
      </Changes>
    </StatefulDiffCommand>
  </UndoTransaction>
  <UndoTransaction tv-sec="1670393600" tv-usec="203135" name="delete objects">
    <StatefulDiffCommand obj-id="43397" type-name="ARDOUR::AudioRegion">
      <Changes>
        <layering-index from="61" to="60"/>
      </Changes>
    </StatefulDiffCommand>
    <StatefulDiffCommand obj-id="42612" type-name="ARDOUR::AudioRegion">
      <Changes>
        <layering-index from="60" to="59"/>
      </Changes>
    </StatefulDiffCommand>
    <StatefulDiffCommand obj-id="238" type-name="ARDOUR::AudioPlaylist">
      <Changes>
        <Regions>
          <Remove id="42423"/>
        </Regions>
      </Changes>
    </StatefulDiffCommand>
    <MementoCommand obj-id="49" type-name="SelectionMemento">
      <SelectionMemento mouse-mode="MouseObject" zoom="130" left-frame="15115007" y-origin="0">
        <Selection>
          <Regions>
            <Region id="42423"/>
          </Regions>
          <Marker id="39144" start="0"/>
        </Selection>
      </SelectionMemento>
      <SelectionMemento mouse-mode="MouseObject" zoom="130" left-frame="15115007" y-origin="0">
        <Selection>
          <Marker id="39144" start="0"/>
        </Selection>
      </SelectionMemento>
    </MementoCommand>
  </UndoTransaction>
  <UndoTransaction tv-sec="1670393601" tv-usec="29478" name="region drag">
    <StatefulDiffCommand obj-id="43397" type-name="ARDOUR::AudioRegion">
      <Changes>
        <length from="a695345280@a88452763560" to="a695345280@a88479517560"/>
      </Changes>
    </StatefulDiffCommand>
    <MementoCommand obj-id="49" type-name="SelectionMemento">
      <SelectionMemento mouse-mode="MouseObject" zoom="130" left-frame="15115007" y-origin="0">
        <Selection>
          <Regions>
            <Region id="43397"/>
          </Regions>
          <Marker id="39144" start="0"/>
        </Selection>
      </SelectionMemento>
      <SelectionMemento mouse-mode="MouseObject" zoom="130" left-frame="15115007" y-origin="0">
        <Selection>
          <Regions>
            <Region id="43397"/>
          </Regions>
          <Marker id="39144" start="0"/>
        </Selection>
      </SelectionMemento>
    </MementoCommand>
  </UndoTransaction>
  <UndoTransaction tv-sec="1670393603" tv-usec="934835" name="region drag">
    <StatefulDiffCommand obj-id="43397" type-name="ARDOUR::AudioRegion">
      <Changes>
        <length from="a695345280@a88479517560" to="a695345280@a88500920760"/>
      </Changes>
    </StatefulDiffCommand>
    <MementoCommand obj-id="49" type-name="SelectionMemento">
      <SelectionMemento mouse-mode="MouseObject" zoom="130" left-frame="15115007" y-origin="0">
        <Selection>
          <Regions>
            <Region id="43397"/>
          </Regions>
          <Marker id="39144" start="0"/>
        </Selection>
      </SelectionMemento>
      <SelectionMemento mouse-mode="MouseObject" zoom="130" left-frame="15115007" y-origin="0">
        <Selection>
          <Regions>
            <Region id="43397"/>
          </Regions>
          <Marker id="39144" start="0"/>
        </Selection>
      </SelectionMemento>
    </MementoCommand>
  </UndoTransaction>
  <UndoTransaction tv-sec="1670393615" tv-usec="601827" name="Region end trim">
    <StatefulDiffCommand obj-id="42612" type-name="ARDOUR::AudioRegion">
      <Changes>
        <length from="a875132160@a89184435480" to="a828503760@a89184435480"/>
        <Envelope>
          <from>
            <AutomationList automation-id="envelope" id="44052" interpolation-style="Exponential" time-domain="AudioTime" state="Off">
              <events>a0 1.0000001000000001
a875132160 1
</events>
            </AutomationList>
          </from>
          <to>
            <AutomationList automation-id="envelope" id="44051" interpolation-style="Exponential" time-domain="AudioTime" state="Off">
              <events>a0 1.0000001000000001
a828503760 1.0000001053281586
</events>
            </AutomationList>
          </to>
        </Envelope>
      </Changes>
    </StatefulDiffCommand>
    <MementoCommand obj-id="49" type-name="SelectionMemento">
      <SelectionMemento mouse-mode="MouseObject" zoom="130" left-frame="15254448" y-origin="0">
        <Selection>
          <Regions>
            <Region id="42612"/>
          </Regions>
          <Marker id="39144" start="0"/>
        </Selection>
      </SelectionMemento>
      <SelectionMemento mouse-mode="MouseObject" zoom="130" left-frame="15254448" y-origin="0">
        <Selection>
          <Regions>
            <Region id="42612"/>
          </Regions>
          <Marker id="39144" start="0"/>
        </Selection>
      </SelectionMemento>
    </MementoCommand>
  </UndoTransaction>
  <UndoTransaction tv-sec="1670393623" tv-usec="395900" name="new range marker">
    <MementoCommand obj-id="57" type-name="ARDOUR::Locations">
      <Locations>
        <Location id="359" name="session" start="a-1084860" end="a3369048900" flags="IsSessionRange" locked="0" timestamp="1670384612" cue="0"/>
        <Location id="939" name="mark1" start="a3386880000" end="a3386880000" flags="IsMark" locked="0" timestamp="1670385230" cue="0"/>
        <Location id="4689" name="range1" start="a10363500000" end="a14090055840" flags="IsRangeMarker" locked="0" timestamp="1670386324" cue="0"/>
        <Location id="4722" name="range2" start="a5207401500" end="a9206069040" flags="IsRangeMarker" locked="0" timestamp="1670386343" cue="0"/>
        <Location id="6833" name="range3" start="a14531291040" end="a16984803360" flags="IsRangeMarker" locked="0" timestamp="1670387300" cue="0"/>
        <Location id="10577" name="range4" start="a17339873040" end="a28606235280" flags="IsRangeMarker" locked="0" timestamp="1670388028" cue="0"/>
        <Location id="11949" name="range5" start="a29359128120" end="a32421243960" flags="IsRangeMarker" locked="0" timestamp="1670388290" cue="0"/>
        <Location id="13757" name="range6" start="a32745937560" end="a35366206680" flags="IsRangeMarker" locked="0" timestamp="1670388623" cue="0"/>
        <Location id="16411" name="range7" start="a35814968280" end="a40038243000" flags="IsRangeMarker" locked="0" timestamp="1670388988" cue="0"/>
        <Location id="18416" name="range8" start="a40894529760" end="a42868963200" flags="IsRangeMarker" locked="0" timestamp="1670389315" cue="0"/>
        <Location id="19952" name="range9" start="a44489467680" end="a48110724480" flags="IsRangeMarker" locked="0" timestamp="1670390229" cue="0"/>
        <Location id="20931" name="range10" start="a48617451120" end="a51657281760" flags="IsRangeMarker" locked="0" timestamp="1670390618" cue="0"/>
        <Location id="21825" name="range11" start="a52047984240" end="a56529485040" flags="IsRangeMarker" locked="0" timestamp="1670390851" cue="0"/>
        <Location id="25361" name="range12" start="a57026744880" end="a62339301360" flags="IsRangeMarker" locked="0" timestamp="1670391208" cue="0"/>
        <Location id="29008" name="range13" start="a63192095400" end="a68510008560" flags="IsRangeMarker" locked="0" timestamp="1670392013" cue="0"/>
        <Location id="30413" name="range14" start="a68962933200" end="a71769433680" flags="IsRangeMarker" locked="0" timestamp="1670392129" cue="0"/>
        <Location id="30998" name="range15" start="a72504680640" end="a73923030720" flags="IsRangeMarker" locked="0" timestamp="1670392376" cue="0"/>
        <Location id="38202" name="q1" start="a74532522120" end="a77201983320" flags="IsRangeMarker" locked="0" timestamp="1670393142" cue="0"/>
        <Location id="38210" name="q2" start="a77577891720" end="a81719563800" flags="IsRangeMarker" locked="0" timestamp="1670393147" cue="0"/>
        <Location id="39135" name="i1" start="a82436418120" end="a83541740520" flags="IsRangeMarker" locked="0" timestamp="1670393321" cue="0"/>
        <Location id="39144" name="i2" start="a85273870920" end="a88021641960" flags="IsRangeMarker" locked="0" timestamp="1670393334" cue="0"/>
      </Locations>
      <Locations>
        <Location id="359" name="session" start="a-1084860" end="a3369048900" flags="IsSessionRange" locked="0" timestamp="1670384612" cue="0"/>
        <Location id="939" name="mark1" start="a3386880000" end="a3386880000" flags="IsMark" locked="0" timestamp="1670385230" cue="0"/>
        <Location id="4689" name="range1" start="a10363500000" end="a14090055840" flags="IsRangeMarker" locked="0" timestamp="1670386324" cue="0"/>
        <Location id="4722" name="range2" start="a5207401500" end="a9206069040" flags="IsRangeMarker" locked="0" timestamp="1670386343" cue="0"/>
        <Location id="6833" name="range3" start="a14531291040" end="a16984803360" flags="IsRangeMarker" locked="0" timestamp="1670387300" cue="0"/>
        <Location id="10577" name="range4" start="a17339873040" end="a28606235280" flags="IsRangeMarker" locked="0" timestamp="1670388028" cue="0"/>
        <Location id="11949" name="range5" start="a29359128120" end="a32421243960" flags="IsRangeMarker" locked="0" timestamp="1670388290" cue="0"/>
        <Location id="13757" name="range6" start="a32745937560" end="a35366206680" flags="IsRangeMarker" locked="0" timestamp="1670388623" cue="0"/>
        <Location id="16411" name="range7" start="a35814968280" end="a40038243000" flags="IsRangeMarker" locked="0" timestamp="1670388988" cue="0"/>
        <Location id="18416" name="range8" start="a40894529760" end="a42868963200" flags="IsRangeMarker" locked="0" timestamp="1670389315" cue="0"/>
        <Location id="19952" name="range9" start="a44489467680" end="a48110724480" flags="IsRangeMarker" locked="0" timestamp="1670390229" cue="0"/>
        <Location id="20931" name="range10" start="a48617451120" end="a51657281760" flags="IsRangeMarker" locked="0" timestamp="1670390618" cue="0"/>
        <Location id="21825" name="range11" start="a52047984240" end="a56529485040" flags="IsRangeMarker" locked="0" timestamp="1670390851" cue="0"/>
        <Location id="25361" name="range12" start="a57026744880" end="a62339301360" flags="IsRangeMarker" locked="0" timestamp="1670391208" cue="0"/>
        <Location id="29008" name="range13" start="a63192095400" end="a68510008560" flags="IsRangeMarker" locked="0" timestamp="1670392013" cue="0"/>
        <Location id="30413" name="range14" start="a68962933200" end="a71769433680" flags="IsRangeMarker" locked="0" timestamp="1670392129" cue="0"/>
        <Location id="30998" name="range15" start="a72504680640" end="a73923030720" flags="IsRangeMarker" locked="0" timestamp="1670392376" cue="0"/>
        <Location id="38202" name="q1" start="a74532522120" end="a77201983320" flags="IsRangeMarker" locked="0" timestamp="1670393142" cue="0"/>
        <Location id="38210" name="q2" start="a77577891720" end="a81719563800" flags="IsRangeMarker" locked="0" timestamp="1670393147" cue="0"/>
        <Location id="39135" name="i1" start="a82436418120" end="a83541740520" flags="IsRangeMarker" locked="0" timestamp="1670393321" cue="0"/>
        <Location id="39144" name="i2" start="a85273870920" end="a88021641960" flags="IsRangeMarker" locked="0" timestamp="1670393334" cue="0"/>
        <Location id="44054" name="range16" start="a88503690240" end="a89056351440" flags="IsRangeMarker" locked="0" timestamp="1670393623" cue="0"/>
      </Locations>
    </MementoCommand>
    <MementoCommand obj-id="49" type-name="SelectionMemento">
      <SelectionMemento mouse-mode="MouseObject" zoom="1040" left-frame="14879008" y-origin="0">
        <Selection>
          <Regions>
            <Region id="42612"/>
          </Regions>
          <Marker id="39144" start="0"/>
        </Selection>
      </SelectionMemento>
      <SelectionMemento mouse-mode="MouseObject" zoom="1040" left-frame="14879008" y-origin="0">
        <Selection>
          <Regions>
            <Region id="42612"/>
          </Regions>
          <Marker id="39144" start="0"/>
        </Selection>
      </SelectionMemento>
    </MementoCommand>
  </UndoTransaction>
  <UndoTransaction tv-sec="1670393626" tv-usec="134032" name="rename marker">
    <MementoCommand obj-id="57" type-name="ARDOUR::Locations">
      <Locations>
        <Location id="359" name="session" start="a-1084860" end="a3369048900" flags="IsSessionRange" locked="0" timestamp="1670384612" cue="0"/>
        <Location id="939" name="mark1" start="a3386880000" end="a3386880000" flags="IsMark" locked="0" timestamp="1670385230" cue="0"/>
        <Location id="4689" name="range1" start="a10363500000" end="a14090055840" flags="IsRangeMarker" locked="0" timestamp="1670386324" cue="0"/>
        <Location id="4722" name="range2" start="a5207401500" end="a9206069040" flags="IsRangeMarker" locked="0" timestamp="1670386343" cue="0"/>
        <Location id="6833" name="range3" start="a14531291040" end="a16984803360" flags="IsRangeMarker" locked="0" timestamp="1670387300" cue="0"/>
        <Location id="10577" name="range4" start="a17339873040" end="a28606235280" flags="IsRangeMarker" locked="0" timestamp="1670388028" cue="0"/>
        <Location id="11949" name="range5" start="a29359128120" end="a32421243960" flags="IsRangeMarker" locked="0" timestamp="1670388290" cue="0"/>
        <Location id="13757" name="range6" start="a32745937560" end="a35366206680" flags="IsRangeMarker" locked="0" timestamp="1670388623" cue="0"/>
        <Location id="16411" name="range7" start="a35814968280" end="a40038243000" flags="IsRangeMarker" locked="0" timestamp="1670388988" cue="0"/>
        <Location id="18416" name="range8" start="a40894529760" end="a42868963200" flags="IsRangeMarker" locked="0" timestamp="1670389315" cue="0"/>
        <Location id="19952" name="range9" start="a44489467680" end="a48110724480" flags="IsRangeMarker" locked="0" timestamp="1670390229" cue="0"/>
        <Location id="20931" name="range10" start="a48617451120" end="a51657281760" flags="IsRangeMarker" locked="0" timestamp="1670390618" cue="0"/>
        <Location id="21825" name="range11" start="a52047984240" end="a56529485040" flags="IsRangeMarker" locked="0" timestamp="1670390851" cue="0"/>
        <Location id="25361" name="range12" start="a57026744880" end="a62339301360" flags="IsRangeMarker" locked="0" timestamp="1670391208" cue="0"/>
        <Location id="29008" name="range13" start="a63192095400" end="a68510008560" flags="IsRangeMarker" locked="0" timestamp="1670392013" cue="0"/>
        <Location id="30413" name="range14" start="a68962933200" end="a71769433680" flags="IsRangeMarker" locked="0" timestamp="1670392129" cue="0"/>
        <Location id="30998" name="range15" start="a72504680640" end="a73923030720" flags="IsRangeMarker" locked="0" timestamp="1670392376" cue="0"/>
        <Location id="38202" name="q1" start="a74532522120" end="a77201983320" flags="IsRangeMarker" locked="0" timestamp="1670393142" cue="0"/>
        <Location id="38210" name="q2" start="a77577891720" end="a81719563800" flags="IsRangeMarker" locked="0" timestamp="1670393147" cue="0"/>
        <Location id="39135" name="i1" start="a82436418120" end="a83541740520" flags="IsRangeMarker" locked="0" timestamp="1670393321" cue="0"/>
        <Location id="39144" name="i2" start="a85273870920" end="a88021641960" flags="IsRangeMarker" locked="0" timestamp="1670393334" cue="0"/>
        <Location id="44054" name="range16" start="a88503690240" end="a89056351440" flags="IsRangeMarker" locked="0" timestamp="1670393623" cue="0"/>
      </Locations>
      <Locations>
        <Location id="359" name="session" start="a-1084860" end="a3369048900" flags="IsSessionRange" locked="0" timestamp="1670384612" cue="0"/>
        <Location id="939" name="mark1" start="a3386880000" end="a3386880000" flags="IsMark" locked="0" timestamp="1670385230" cue="0"/>
        <Location id="4689" name="range1" start="a10363500000" end="a14090055840" flags="IsRangeMarker" locked="0" timestamp="1670386324" cue="0"/>
        <Location id="4722" name="range2" start="a5207401500" end="a9206069040" flags="IsRangeMarker" locked="0" timestamp="1670386343" cue="0"/>
        <Location id="6833" name="range3" start="a14531291040" end="a16984803360" flags="IsRangeMarker" locked="0" timestamp="1670387300" cue="0"/>
        <Location id="10577" name="range4" start="a17339873040" end="a28606235280" flags="IsRangeMarker" locked="0" timestamp="1670388028" cue="0"/>
        <Location id="11949" name="range5" start="a29359128120" end="a32421243960" flags="IsRangeMarker" locked="0" timestamp="1670388290" cue="0"/>
        <Location id="13757" name="range6" start="a32745937560" end="a35366206680" flags="IsRangeMarker" locked="0" timestamp="1670388623" cue="0"/>
        <Location id="16411" name="range7" start="a35814968280" end="a40038243000" flags="IsRangeMarker" locked="0" timestamp="1670388988" cue="0"/>
        <Location id="18416" name="range8" start="a40894529760" end="a42868963200" flags="IsRangeMarker" locked="0" timestamp="1670389315" cue="0"/>
        <Location id="19952" name="range9" start="a44489467680" end="a48110724480" flags="IsRangeMarker" locked="0" timestamp="1670390229" cue="0"/>
        <Location id="20931" name="range10" start="a48617451120" end="a51657281760" flags="IsRangeMarker" locked="0" timestamp="1670390618" cue="0"/>
        <Location id="21825" name="range11" start="a52047984240" end="a56529485040" flags="IsRangeMarker" locked="0" timestamp="1670390851" cue="0"/>
        <Location id="25361" name="range12" start="a57026744880" end="a62339301360" flags="IsRangeMarker" locked="0" timestamp="1670391208" cue="0"/>
        <Location id="29008" name="range13" start="a63192095400" end="a68510008560" flags="IsRangeMarker" locked="0" timestamp="1670392013" cue="0"/>
        <Location id="30413" name="range14" start="a68962933200" end="a71769433680" flags="IsRangeMarker" locked="0" timestamp="1670392129" cue="0"/>
        <Location id="30998" name="range15" start="a72504680640" end="a73923030720" flags="IsRangeMarker" locked="0" timestamp="1670392376" cue="0"/>
        <Location id="38202" name="q1" start="a74532522120" end="a77201983320" flags="IsRangeMarker" locked="0" timestamp="1670393142" cue="0"/>
        <Location id="38210" name="q2" start="a77577891720" end="a81719563800" flags="IsRangeMarker" locked="0" timestamp="1670393147" cue="0"/>
        <Location id="39135" name="i1" start="a82436418120" end="a83541740520" flags="IsRangeMarker" locked="0" timestamp="1670393321" cue="0"/>
        <Location id="39144" name="i2" start="a85273870920" end="a88021641960" flags="IsRangeMarker" locked="0" timestamp="1670393334" cue="0"/>
        <Location id="44054" name="i3" start="a88503690240" end="a89056351440" flags="IsRangeMarker" locked="0" timestamp="1670393623" cue="0"/>
      </Locations>
    </MementoCommand>
    <MementoCommand obj-id="49" type-name="SelectionMemento">
      <SelectionMemento mouse-mode="MouseObject" zoom="1040" left-frame="14879008" y-origin="0">
        <Selection>
          <Regions>
            <Region id="42612"/>
          </Regions>
          <Marker id="44054" start="1"/>
        </Selection>
      </SelectionMemento>
      <SelectionMemento mouse-mode="MouseObject" zoom="1040" left-frame="14879008" y-origin="0">
        <Selection>
          <Regions>
            <Region id="42612"/>
          </Regions>
          <Marker id="44054" start="1"/>
        </Selection>
      </SelectionMemento>
    </MementoCommand>
  </UndoTransaction>
  <UndoTransaction tv-sec="1670393630" tv-usec="8060" name="move marker">
    <MementoCommand obj-id="57" type-name="ARDOUR::Locations">
      <Locations>
        <Location id="359" name="session" start="a-1084860" end="a3369048900" flags="IsSessionRange" locked="0" timestamp="1670384612" cue="0"/>
        <Location id="939" name="mark1" start="a3386880000" end="a3386880000" flags="IsMark" locked="0" timestamp="1670385230" cue="0"/>
        <Location id="4689" name="range1" start="a10363500000" end="a14090055840" flags="IsRangeMarker" locked="0" timestamp="1670386324" cue="0"/>
        <Location id="4722" name="range2" start="a5207401500" end="a9206069040" flags="IsRangeMarker" locked="0" timestamp="1670386343" cue="0"/>
        <Location id="6833" name="range3" start="a14531291040" end="a16984803360" flags="IsRangeMarker" locked="0" timestamp="1670387300" cue="0"/>
        <Location id="10577" name="range4" start="a17339873040" end="a28606235280" flags="IsRangeMarker" locked="0" timestamp="1670388028" cue="0"/>
        <Location id="11949" name="range5" start="a29359128120" end="a32421243960" flags="IsRangeMarker" locked="0" timestamp="1670388290" cue="0"/>
        <Location id="13757" name="range6" start="a32745937560" end="a35366206680" flags="IsRangeMarker" locked="0" timestamp="1670388623" cue="0"/>
        <Location id="16411" name="range7" start="a35814968280" end="a40038243000" flags="IsRangeMarker" locked="0" timestamp="1670388988" cue="0"/>
        <Location id="18416" name="range8" start="a40894529760" end="a42868963200" flags="IsRangeMarker" locked="0" timestamp="1670389315" cue="0"/>
        <Location id="19952" name="range9" start="a44489467680" end="a48110724480" flags="IsRangeMarker" locked="0" timestamp="1670390229" cue="0"/>
        <Location id="20931" name="range10" start="a48617451120" end="a51657281760" flags="IsRangeMarker" locked="0" timestamp="1670390618" cue="0"/>
        <Location id="21825" name="range11" start="a52047984240" end="a56529485040" flags="IsRangeMarker" locked="0" timestamp="1670390851" cue="0"/>
        <Location id="25361" name="range12" start="a57026744880" end="a62339301360" flags="IsRangeMarker" locked="0" timestamp="1670391208" cue="0"/>
        <Location id="29008" name="range13" start="a63192095400" end="a68510008560" flags="IsRangeMarker" locked="0" timestamp="1670392013" cue="0"/>
        <Location id="30413" name="range14" start="a68962933200" end="a71769433680" flags="IsRangeMarker" locked="0" timestamp="1670392129" cue="0"/>
        <Location id="30998" name="range15" start="a72504680640" end="a73923030720" flags="IsRangeMarker" locked="0" timestamp="1670392376" cue="0"/>
        <Location id="38202" name="q1" start="a74532522120" end="a77201983320" flags="IsRangeMarker" locked="0" timestamp="1670393142" cue="0"/>
        <Location id="38210" name="q2" start="a77577891720" end="a81719563800" flags="IsRangeMarker" locked="0" timestamp="1670393147" cue="0"/>
        <Location id="39135" name="i1" start="a82436418120" end="a83541740520" flags="IsRangeMarker" locked="0" timestamp="1670393321" cue="0"/>
        <Location id="39144" name="i2" start="a85273870920" end="a88021641960" flags="IsRangeMarker" locked="0" timestamp="1670393334" cue="0"/>
        <Location id="44054" name="i3" start="a88503690240" end="a89056351440" flags="IsRangeMarker" locked="0" timestamp="1670393623" cue="0"/>
      </Locations>
      <Locations>
        <Location id="359" name="session" start="a-1084860" end="a3369048900" flags="IsSessionRange" locked="0" timestamp="1670384612" cue="0"/>
        <Location id="939" name="mark1" start="a3386880000" end="a3386880000" flags="IsMark" locked="0" timestamp="1670385230" cue="0"/>
        <Location id="4689" name="range1" start="a10363500000" end="a14090055840" flags="IsRangeMarker" locked="0" timestamp="1670386324" cue="0"/>
        <Location id="4722" name="range2" start="a5207401500" end="a9206069040" flags="IsRangeMarker" locked="0" timestamp="1670386343" cue="0"/>
        <Location id="6833" name="range3" start="a14531291040" end="a16984803360" flags="IsRangeMarker" locked="0" timestamp="1670387300" cue="0"/>
        <Location id="10577" name="range4" start="a17339873040" end="a28606235280" flags="IsRangeMarker" locked="0" timestamp="1670388028" cue="0"/>
        <Location id="11949" name="range5" start="a29359128120" end="a32421243960" flags="IsRangeMarker" locked="0" timestamp="1670388290" cue="0"/>
        <Location id="13757" name="range6" start="a32745937560" end="a35366206680" flags="IsRangeMarker" locked="0" timestamp="1670388623" cue="0"/>
        <Location id="16411" name="range7" start="a35814968280" end="a40038243000" flags="IsRangeMarker" locked="0" timestamp="1670388988" cue="0"/>
        <Location id="18416" name="range8" start="a40894529760" end="a42868963200" flags="IsRangeMarker" locked="0" timestamp="1670389315" cue="0"/>
        <Location id="19952" name="range9" start="a44489467680" end="a48110724480" flags="IsRangeMarker" locked="0" timestamp="1670390229" cue="0"/>
        <Location id="20931" name="range10" start="a48617451120" end="a51657281760" flags="IsRangeMarker" locked="0" timestamp="1670390618" cue="0"/>
        <Location id="21825" name="range11" start="a52047984240" end="a56529485040" flags="IsRangeMarker" locked="0" timestamp="1670390851" cue="0"/>
        <Location id="25361" name="range12" start="a57026744880" end="a62339301360" flags="IsRangeMarker" locked="0" timestamp="1670391208" cue="0"/>
        <Location id="29008" name="range13" start="a63192095400" end="a68510008560" flags="IsRangeMarker" locked="0" timestamp="1670392013" cue="0"/>
        <Location id="30413" name="range14" start="a68962933200" end="a71769433680" flags="IsRangeMarker" locked="0" timestamp="1670392129" cue="0"/>
        <Location id="30998" name="range15" start="a72504680640" end="a73923030720" flags="IsRangeMarker" locked="0" timestamp="1670392376" cue="0"/>
        <Location id="38202" name="q1" start="a74532522120" end="a77201983320" flags="IsRangeMarker" locked="0" timestamp="1670393142" cue="0"/>
        <Location id="38210" name="q2" start="a77577891720" end="a81719563800" flags="IsRangeMarker" locked="0" timestamp="1670393147" cue="0"/>
        <Location id="39135" name="i1" start="a82436418120" end="a83541740520" flags="IsRangeMarker" locked="0" timestamp="1670393321" cue="0"/>
        <Location id="39144" name="i2" start="a85273870920" end="a88021641960" flags="IsRangeMarker" locked="0" timestamp="1670393334" cue="0"/>
        <Location id="44054" name="i3" start="a88503690240" end="a90016437840" flags="IsRangeMarker" locked="0" timestamp="1670393623" cue="0"/>
      </Locations>
    </MementoCommand>
    <MementoCommand obj-id="49" type-name="SelectionMemento">
      <SelectionMemento mouse-mode="MouseObject" zoom="1040" left-frame="14879008" y-origin="0">
        <Selection>
          <Regions>
            <Region id="42612"/>
          </Regions>
          <Marker id="44054" start="0"/>
        </Selection>
      </SelectionMemento>
      <SelectionMemento mouse-mode="MouseObject" zoom="1040" left-frame="14879008" y-origin="0">
        <Selection>
          <Regions>
            <Region id="42612"/>
          </Regions>
          <Marker id="44054" start="0"/>
        </Selection>
      </SelectionMemento>
    </MementoCommand>
  </UndoTransaction>
  <UndoTransaction tv-sec="1670393633" tv-usec="16193" name="move marker">
    <MementoCommand obj-id="57" type-name="ARDOUR::Locations">
      <Locations>
        <Location id="359" name="session" start="a-1084860" end="a3369048900" flags="IsSessionRange" locked="0" timestamp="1670384612" cue="0"/>
        <Location id="939" name="mark1" start="a3386880000" end="a3386880000" flags="IsMark" locked="0" timestamp="1670385230" cue="0"/>
        <Location id="4689" name="range1" start="a10363500000" end="a14090055840" flags="IsRangeMarker" locked="0" timestamp="1670386324" cue="0"/>
        <Location id="4722" name="range2" start="a5207401500" end="a9206069040" flags="IsRangeMarker" locked="0" timestamp="1670386343" cue="0"/>
        <Location id="6833" name="range3" start="a14531291040" end="a16984803360" flags="IsRangeMarker" locked="0" timestamp="1670387300" cue="0"/>
        <Location id="10577" name="range4" start="a17339873040" end="a28606235280" flags="IsRangeMarker" locked="0" timestamp="1670388028" cue="0"/>
        <Location id="11949" name="range5" start="a29359128120" end="a32421243960" flags="IsRangeMarker" locked="0" timestamp="1670388290" cue="0"/>
        <Location id="13757" name="range6" start="a32745937560" end="a35366206680" flags="IsRangeMarker" locked="0" timestamp="1670388623" cue="0"/>
        <Location id="16411" name="range7" start="a35814968280" end="a40038243000" flags="IsRangeMarker" locked="0" timestamp="1670388988" cue="0"/>
        <Location id="18416" name="range8" start="a40894529760" end="a42868963200" flags="IsRangeMarker" locked="0" timestamp="1670389315" cue="0"/>
        <Location id="19952" name="range9" start="a44489467680" end="a48110724480" flags="IsRangeMarker" locked="0" timestamp="1670390229" cue="0"/>
        <Location id="20931" name="range10" start="a48617451120" end="a51657281760" flags="IsRangeMarker" locked="0" timestamp="1670390618" cue="0"/>
        <Location id="21825" name="range11" start="a52047984240" end="a56529485040" flags="IsRangeMarker" locked="0" timestamp="1670390851" cue="0"/>
        <Location id="25361" name="range12" start="a57026744880" end="a62339301360" flags="IsRangeMarker" locked="0" timestamp="1670391208" cue="0"/>
        <Location id="29008" name="range13" start="a63192095400" end="a68510008560" flags="IsRangeMarker" locked="0" timestamp="1670392013" cue="0"/>
        <Location id="30413" name="range14" start="a68962933200" end="a71769433680" flags="IsRangeMarker" locked="0" timestamp="1670392129" cue="0"/>
        <Location id="30998" name="range15" start="a72504680640" end="a73923030720" flags="IsRangeMarker" locked="0" timestamp="1670392376" cue="0"/>
        <Location id="38202" name="q1" start="a74532522120" end="a77201983320" flags="IsRangeMarker" locked="0" timestamp="1670393142" cue="0"/>
        <Location id="38210" name="q2" start="a77577891720" end="a81719563800" flags="IsRangeMarker" locked="0" timestamp="1670393147" cue="0"/>
        <Location id="39135" name="i1" start="a82436418120" end="a83541740520" flags="IsRangeMarker" locked="0" timestamp="1670393321" cue="0"/>
        <Location id="39144" name="i2" start="a85273870920" end="a88021641960" flags="IsRangeMarker" locked="0" timestamp="1670393334" cue="0"/>
        <Location id="44054" name="i3" start="a88503690240" end="a90016437840" flags="IsRangeMarker" locked="0" timestamp="1670393623" cue="0"/>
      </Locations>
      <Locations>
        <Location id="359" name="session" start="a-1084860" end="a3369048900" flags="IsSessionRange" locked="0" timestamp="1670384612" cue="0"/>
        <Location id="939" name="mark1" start="a3386880000" end="a3386880000" flags="IsMark" locked="0" timestamp="1670385230" cue="0"/>
        <Location id="4689" name="range1" start="a10363500000" end="a14090055840" flags="IsRangeMarker" locked="0" timestamp="1670386324" cue="0"/>
        <Location id="4722" name="range2" start="a5207401500" end="a9206069040" flags="IsRangeMarker" locked="0" timestamp="1670386343" cue="0"/>
        <Location id="6833" name="range3" start="a14531291040" end="a16984803360" flags="IsRangeMarker" locked="0" timestamp="1670387300" cue="0"/>
        <Location id="10577" name="range4" start="a17339873040" end="a28606235280" flags="IsRangeMarker" locked="0" timestamp="1670388028" cue="0"/>
        <Location id="11949" name="range5" start="a29359128120" end="a32421243960" flags="IsRangeMarker" locked="0" timestamp="1670388290" cue="0"/>
        <Location id="13757" name="range6" start="a32745937560" end="a35366206680" flags="IsRangeMarker" locked="0" timestamp="1670388623" cue="0"/>
        <Location id="16411" name="range7" start="a35814968280" end="a40038243000" flags="IsRangeMarker" locked="0" timestamp="1670388988" cue="0"/>
        <Location id="18416" name="range8" start="a40894529760" end="a42868963200" flags="IsRangeMarker" locked="0" timestamp="1670389315" cue="0"/>
        <Location id="19952" name="range9" start="a44489467680" end="a48110724480" flags="IsRangeMarker" locked="0" timestamp="1670390229" cue="0"/>
        <Location id="20931" name="range10" start="a48617451120" end="a51657281760" flags="IsRangeMarker" locked="0" timestamp="1670390618" cue="0"/>
        <Location id="21825" name="range11" start="a52047984240" end="a56529485040" flags="IsRangeMarker" locked="0" timestamp="1670390851" cue="0"/>
        <Location id="25361" name="range12" start="a57026744880" end="a62339301360" flags="IsRangeMarker" locked="0" timestamp="1670391208" cue="0"/>
        <Location id="29008" name="range13" start="a63192095400" end="a68510008560" flags="IsRangeMarker" locked="0" timestamp="1670392013" cue="0"/>
        <Location id="30413" name="range14" start="a68962933200" end="a71769433680" flags="IsRangeMarker" locked="0" timestamp="1670392129" cue="0"/>
        <Location id="30998" name="range15" start="a72504680640" end="a73923030720" flags="IsRangeMarker" locked="0" timestamp="1670392376" cue="0"/>
        <Location id="38202" name="q1" start="a74532522120" end="a77201983320" flags="IsRangeMarker" locked="0" timestamp="1670393142" cue="0"/>
        <Location id="38210" name="q2" start="a77577891720" end="a81719563800" flags="IsRangeMarker" locked="0" timestamp="1670393147" cue="0"/>
        <Location id="39135" name="i1" start="a82436418120" end="a83541740520" flags="IsRangeMarker" locked="0" timestamp="1670393321" cue="0"/>
        <Location id="39144" name="i2" start="a85273870920" end="a88021641960" flags="IsRangeMarker" locked="0" timestamp="1670393334" cue="0"/>
        <Location id="44054" name="i3" start="a88503690240" end="a90016437840" flags="IsRangeMarker" locked="0" timestamp="1670393623" cue="0"/>
      </Locations>
    </MementoCommand>
    <MementoCommand obj-id="49" type-name="SelectionMemento">
      <SelectionMemento mouse-mode="MouseObject" zoom="130" left-frame="15245738" y-origin="0">
        <Selection>
          <Regions>
            <Region id="42612"/>
          </Regions>
          <Marker id="44054" start="0"/>
        </Selection>
      </SelectionMemento>
      <SelectionMemento mouse-mode="MouseObject" zoom="130" left-frame="15245738" y-origin="0">
        <Selection>
          <Regions>
            <Region id="42612"/>
          </Regions>
          <Marker id="44054" start="0"/>
        </Selection>
      </SelectionMemento>
    </MementoCommand>
  </UndoTransaction>
  <UndoTransaction tv-sec="1670393635" tv-usec="903337" name="Region end trim">
    <StatefulDiffCommand obj-id="42612" type-name="ARDOUR::AudioRegion">
      <Changes>
        <length from="a828503760@a89184435480" to="a810922560@a89184435480"/>
        <Envelope>
          <from>
            <AutomationList automation-id="envelope" id="44370" interpolation-style="Exponential" time-domain="AudioTime" state="Off">
              <events>a0 1.0000001000000001
a828503760 1.0000001053281586
</events>
            </AutomationList>
          </from>
          <to>
            <AutomationList automation-id="envelope" id="44369" interpolation-style="Exponential" time-domain="AudioTime" state="Off">
              <events>a0 1.0000001000000001
a810922560 1.0000002053281587
</events>
            </AutomationList>
          </to>
        </Envelope>
      </Changes>
    </StatefulDiffCommand>
    <MementoCommand obj-id="49" type-name="SelectionMemento">
      <SelectionMemento mouse-mode="MouseObject" zoom="130" left-frame="15245738" y-origin="0">
        <Selection>
          <Regions>
            <Region id="42612"/>
          </Regions>
          <Marker id="44054" start="0"/>
        </Selection>
      </SelectionMemento>
      <SelectionMemento mouse-mode="MouseObject" zoom="130" left-frame="15245738" y-origin="0">
        <Selection>
          <Regions>
            <Region id="42612"/>
          </Regions>
          <Marker id="44054" start="0"/>
        </Selection>
      </SelectionMemento>
    </MementoCommand>
  </UndoTransaction>
  <UndoTransaction tv-sec="1670393639" tv-usec="376130" name="move marker">
    <MementoCommand obj-id="57" type-name="ARDOUR::Locations">
      <Locations>
        <Location id="359" name="session" start="a-1084860" end="a3369048900" flags="IsSessionRange" locked="0" timestamp="1670384612" cue="0"/>
        <Location id="939" name="mark1" start="a3386880000" end="a3386880000" flags="IsMark" locked="0" timestamp="1670385230" cue="0"/>
        <Location id="4689" name="range1" start="a10363500000" end="a14090055840" flags="IsRangeMarker" locked="0" timestamp="1670386324" cue="0"/>
        <Location id="4722" name="range2" start="a5207401500" end="a9206069040" flags="IsRangeMarker" locked="0" timestamp="1670386343" cue="0"/>
        <Location id="6833" name="range3" start="a14531291040" end="a16984803360" flags="IsRangeMarker" locked="0" timestamp="1670387300" cue="0"/>
        <Location id="10577" name="range4" start="a17339873040" end="a28606235280" flags="IsRangeMarker" locked="0" timestamp="1670388028" cue="0"/>
        <Location id="11949" name="range5" start="a29359128120" end="a32421243960" flags="IsRangeMarker" locked="0" timestamp="1670388290" cue="0"/>
        <Location id="13757" name="range6" start="a32745937560" end="a35366206680" flags="IsRangeMarker" locked="0" timestamp="1670388623" cue="0"/>
        <Location id="16411" name="range7" start="a35814968280" end="a40038243000" flags="IsRangeMarker" locked="0" timestamp="1670388988" cue="0"/>
        <Location id="18416" name="range8" start="a40894529760" end="a42868963200" flags="IsRangeMarker" locked="0" timestamp="1670389315" cue="0"/>
        <Location id="19952" name="range9" start="a44489467680" end="a48110724480" flags="IsRangeMarker" locked="0" timestamp="1670390229" cue="0"/>
        <Location id="20931" name="range10" start="a48617451120" end="a51657281760" flags="IsRangeMarker" locked="0" timestamp="1670390618" cue="0"/>
        <Location id="21825" name="range11" start="a52047984240" end="a56529485040" flags="IsRangeMarker" locked="0" timestamp="1670390851" cue="0"/>
        <Location id="25361" name="range12" start="a57026744880" end="a62339301360" flags="IsRangeMarker" locked="0" timestamp="1670391208" cue="0"/>
        <Location id="29008" name="range13" start="a63192095400" end="a68510008560" flags="IsRangeMarker" locked="0" timestamp="1670392013" cue="0"/>
        <Location id="30413" name="range14" start="a68962933200" end="a71769433680" flags="IsRangeMarker" locked="0" timestamp="1670392129" cue="0"/>
        <Location id="30998" name="range15" start="a72504680640" end="a73923030720" flags="IsRangeMarker" locked="0" timestamp="1670392376" cue="0"/>
        <Location id="38202" name="q1" start="a74532522120" end="a77201983320" flags="IsRangeMarker" locked="0" timestamp="1670393142" cue="0"/>
        <Location id="38210" name="q2" start="a77577891720" end="a81719563800" flags="IsRangeMarker" locked="0" timestamp="1670393147" cue="0"/>
        <Location id="39135" name="i1" start="a82436418120" end="a83541740520" flags="IsRangeMarker" locked="0" timestamp="1670393321" cue="0"/>
        <Location id="39144" name="i2" start="a85273870920" end="a88021641960" flags="IsRangeMarker" locked="0" timestamp="1670393334" cue="0"/>
        <Location id="44054" name="i3" start="a88503690240" end="a90016437840" flags="IsRangeMarker" locked="0" timestamp="1670393623" cue="0"/>
      </Locations>
      <Locations>
        <Location id="359" name="session" start="a-1084860" end="a3369048900" flags="IsSessionRange" locked="0" timestamp="1670384612" cue="0"/>
        <Location id="939" name="mark1" start="a3386880000" end="a3386880000" flags="IsMark" locked="0" timestamp="1670385230" cue="0"/>
        <Location id="4689" name="range1" start="a10363500000" end="a14090055840" flags="IsRangeMarker" locked="0" timestamp="1670386324" cue="0"/>
        <Location id="4722" name="range2" start="a5207401500" end="a9206069040" flags="IsRangeMarker" locked="0" timestamp="1670386343" cue="0"/>
        <Location id="6833" name="range3" start="a14531291040" end="a16984803360" flags="IsRangeMarker" locked="0" timestamp="1670387300" cue="0"/>
        <Location id="10577" name="range4" start="a17339873040" end="a28606235280" flags="IsRangeMarker" locked="0" timestamp="1670388028" cue="0"/>
        <Location id="11949" name="range5" start="a29359128120" end="a32421243960" flags="IsRangeMarker" locked="0" timestamp="1670388290" cue="0"/>
        <Location id="13757" name="range6" start="a32745937560" end="a35366206680" flags="IsRangeMarker" locked="0" timestamp="1670388623" cue="0"/>
        <Location id="16411" name="range7" start="a35814968280" end="a40038243000" flags="IsRangeMarker" locked="0" timestamp="1670388988" cue="0"/>
        <Location id="18416" name="range8" start="a40894529760" end="a42868963200" flags="IsRangeMarker" locked="0" timestamp="1670389315" cue="0"/>
        <Location id="19952" name="range9" start="a44489467680" end="a48110724480" flags="IsRangeMarker" locked="0" timestamp="1670390229" cue="0"/>
        <Location id="20931" name="range10" start="a48617451120" end="a51657281760" flags="IsRangeMarker" locked="0" timestamp="1670390618" cue="0"/>
        <Location id="21825" name="range11" start="a52047984240" end="a56529485040" flags="IsRangeMarker" locked="0" timestamp="1670390851" cue="0"/>
        <Location id="25361" name="range12" start="a57026744880" end="a62339301360" flags="IsRangeMarker" locked="0" timestamp="1670391208" cue="0"/>
        <Location id="29008" name="range13" start="a63192095400" end="a68510008560" flags="IsRangeMarker" locked="0" timestamp="1670392013" cue="0"/>
        <Location id="30413" name="range14" start="a68962933200" end="a71769433680" flags="IsRangeMarker" locked="0" timestamp="1670392129" cue="0"/>
        <Location id="30998" name="range15" start="a72504680640" end="a73923030720" flags="IsRangeMarker" locked="0" timestamp="1670392376" cue="0"/>
        <Location id="38202" name="q1" start="a74532522120" end="a77201983320" flags="IsRangeMarker" locked="0" timestamp="1670393142" cue="0"/>
        <Location id="38210" name="q2" start="a77577891720" end="a81719563800" flags="IsRangeMarker" locked="0" timestamp="1670393147" cue="0"/>
        <Location id="39135" name="i1" start="a82436418120" end="a83541740520" flags="IsRangeMarker" locked="0" timestamp="1670393321" cue="0"/>
        <Location id="39144" name="i2" start="a85273870920" end="a88021641960" flags="IsRangeMarker" locked="0" timestamp="1670393334" cue="0"/>
        <Location id="44054" name="i3" start="a88503690240" end="a89996563440" flags="IsRangeMarker" locked="0" timestamp="1670393623" cue="0"/>
      </Locations>
    </MementoCommand>
    <MementoCommand obj-id="49" type-name="SelectionMemento">
      <SelectionMemento mouse-mode="MouseObject" zoom="130" left-frame="15245738" y-origin="0">
        <Selection>
          <Regions>
            <Region id="42612"/>
          </Regions>
          <Marker id="44054" start="0"/>
        </Selection>
      </SelectionMemento>
      <SelectionMemento mouse-mode="MouseObject" zoom="130" left-frame="15245738" y-origin="0">
        <Selection>
          <Regions>
            <Region id="42612"/>
          </Regions>
          <Marker id="44054" start="0"/>
        </Selection>
      </SelectionMemento>
    </MementoCommand>
  </UndoTransaction>
  <UndoTransaction tv-sec="1670393641" tv-usec="63622" name="Region end trim">
    <StatefulDiffCommand obj-id="42612" type-name="ARDOUR::AudioRegion">
      <Changes>
        <length from="a810922560@a89184435480" to="a812127960@a89184435480"/>
        <Envelope>
          <from>
            <AutomationList automation-id="envelope" id="44675" interpolation-style="Exponential" time-domain="AudioTime" state="Off">
              <events>a0 1.0000001000000001
a810922560 1.0000002053281587
</events>
            </AutomationList>
          </from>
          <to>
            <AutomationList automation-id="envelope" id="44674" interpolation-style="Exponential" time-domain="AudioTime" state="Off">
              <events>a0 1.0000001000000001
a810922560 1.0000002053281587
a812127960 1.0000002053281587
</events>
            </AutomationList>
          </to>
        </Envelope>
      </Changes>
    </StatefulDiffCommand>
    <MementoCommand obj-id="49" type-name="SelectionMemento">
      <SelectionMemento mouse-mode="MouseObject" zoom="130" left-frame="15245738" y-origin="0">
        <Selection>
          <Regions>
            <Region id="42612"/>
          </Regions>
          <Marker id="44054" start="0"/>
        </Selection>
      </SelectionMemento>
      <SelectionMemento mouse-mode="MouseObject" zoom="130" left-frame="15245738" y-origin="0">
        <Selection>
          <Regions>
            <Region id="42612"/>
          </Regions>
          <Marker id="44054" start="0"/>
        </Selection>
      </SelectionMemento>
    </MementoCommand>
  </UndoTransaction>
  <UndoTransaction tv-sec="1670393928" tv-usec="794497" name="move marker">
    <MementoCommand obj-id="57" type-name="ARDOUR::Locations">
      <Locations>
        <Location id="359" name="session" start="a-1084860" end="a3369048900" flags="IsSessionRange" locked="0" timestamp="1670384612" cue="0"/>
        <Location id="939" name="mark1" start="a3386880000" end="a3386880000" flags="IsMark" locked="0" timestamp="1670385230" cue="0"/>
        <Location id="4689" name="range1" start="a10363500000" end="a14090055840" flags="IsRangeMarker" locked="0" timestamp="1670386324" cue="0"/>
        <Location id="4722" name="range2" start="a5207401500" end="a9206069040" flags="IsRangeMarker" locked="0" timestamp="1670386343" cue="0"/>
        <Location id="6833" name="range3" start="a14531291040" end="a16984803360" flags="IsRangeMarker" locked="0" timestamp="1670387300" cue="0"/>
        <Location id="10577" name="range4" start="a17339873040" end="a28606235280" flags="IsRangeMarker" locked="0" timestamp="1670388028" cue="0"/>
        <Location id="11949" name="range5" start="a29359128120" end="a32421243960" flags="IsRangeMarker" locked="0" timestamp="1670388290" cue="0"/>
        <Location id="13757" name="range6" start="a32745937560" end="a35366206680" flags="IsRangeMarker" locked="0" timestamp="1670388623" cue="0"/>
        <Location id="16411" name="range7" start="a35814968280" end="a40038243000" flags="IsRangeMarker" locked="0" timestamp="1670388988" cue="0"/>
        <Location id="18416" name="range8" start="a40894529760" end="a42868963200" flags="IsRangeMarker" locked="0" timestamp="1670389315" cue="0"/>
        <Location id="19952" name="range9" start="a44489467680" end="a48110724480" flags="IsRangeMarker" locked="0" timestamp="1670390229" cue="0"/>
        <Location id="20931" name="range10" start="a48617451120" end="a51657281760" flags="IsRangeMarker" locked="0" timestamp="1670390618" cue="0"/>
        <Location id="21825" name="range11" start="a52047984240" end="a56529485040" flags="IsRangeMarker" locked="0" timestamp="1670390851" cue="0"/>
        <Location id="25361" name="range12" start="a57026744880" end="a62339301360" flags="IsRangeMarker" locked="0" timestamp="1670391208" cue="0"/>
        <Location id="29008" name="range13" start="a63192095400" end="a68510008560" flags="IsRangeMarker" locked="0" timestamp="1670392013" cue="0"/>
        <Location id="30413" name="range14" start="a68962933200" end="a71769433680" flags="IsRangeMarker" locked="0" timestamp="1670392129" cue="0"/>
        <Location id="30998" name="range15" start="a72504680640" end="a73923030720" flags="IsRangeMarker" locked="0" timestamp="1670392376" cue="0"/>
        <Location id="38202" name="q1" start="a74532522120" end="a77201983320" flags="IsRangeMarker" locked="0" timestamp="1670393142" cue="0"/>
        <Location id="38210" name="q2" start="a77577891720" end="a81719563800" flags="IsRangeMarker" locked="0" timestamp="1670393147" cue="0"/>
        <Location id="39135" name="i1" start="a82436418120" end="a83541740520" flags="IsRangeMarker" locked="0" timestamp="1670393321" cue="0"/>
        <Location id="39144" name="i2" start="a85273870920" end="a88021641960" flags="IsRangeMarker" locked="0" timestamp="1670393334" cue="0"/>
        <Location id="44054" name="i3" start="a88503690240" end="a89996563440" flags="IsRangeMarker" locked="0" timestamp="1670393623" cue="0"/>
      </Locations>
      <Locations>
        <Location id="359" name="session" start="a-1084860" end="a3369048900" flags="IsSessionRange" locked="0" timestamp="1670384612" cue="0"/>
        <Location id="939" name="mark1" start="a3386880000" end="a3386880000" flags="IsMark" locked="0" timestamp="1670385230" cue="0"/>
        <Location id="4689" name="range1" start="a10363500000" end="a14090055840" flags="IsRangeMarker" locked="0" timestamp="1670386324" cue="0"/>
        <Location id="4722" name="range2" start="a5207401500" end="a9206069040" flags="IsRangeMarker" locked="0" timestamp="1670386343" cue="0"/>
        <Location id="6833" name="range3" start="a14531291040" end="a16984803360" flags="IsRangeMarker" locked="0" timestamp="1670387300" cue="0"/>
        <Location id="10577" name="range4" start="a17339873040" end="a28606235280" flags="IsRangeMarker" locked="0" timestamp="1670388028" cue="0"/>
        <Location id="11949" name="range5" start="a29359128120" end="a32421243960" flags="IsRangeMarker" locked="0" timestamp="1670388290" cue="0"/>
        <Location id="13757" name="range6" start="a32745937560" end="a35366206680" flags="IsRangeMarker" locked="0" timestamp="1670388623" cue="0"/>
        <Location id="16411" name="range7" start="a35814968280" end="a40038243000" flags="IsRangeMarker" locked="0" timestamp="1670388988" cue="0"/>
        <Location id="18416" name="range8" start="a40894529760" end="a42868963200" flags="IsRangeMarker" locked="0" timestamp="1670389315" cue="0"/>
        <Location id="19952" name="range9" start="a44489467680" end="a48110724480" flags="IsRangeMarker" locked="0" timestamp="1670390229" cue="0"/>
        <Location id="20931" name="range10" start="a48617451120" end="a51657281760" flags="IsRangeMarker" locked="0" timestamp="1670390618" cue="0"/>
        <Location id="21825" name="range11" start="a52047984240" end="a56529485040" flags="IsRangeMarker" locked="0" timestamp="1670390851" cue="0"/>
        <Location id="25361" name="range12" start="a57026744880" end="a62339301360" flags="IsRangeMarker" locked="0" timestamp="1670391208" cue="0"/>
        <Location id="29008" name="range13" start="a63192095400" end="a68510008560" flags="IsRangeMarker" locked="0" timestamp="1670392013" cue="0"/>
        <Location id="30413" name="range14" start="a68962933200" end="a71769433680" flags="IsRangeMarker" locked="0" timestamp="1670392129" cue="0"/>
        <Location id="30998" name="range15" start="a72504680640" end="a73923030720" flags="IsRangeMarker" locked="0" timestamp="1670392376" cue="0"/>
        <Location id="38202" name="q1" start="a74532522120" end="a77201983320" flags="IsRangeMarker" locked="0" timestamp="1670393142" cue="0"/>
        <Location id="38210" name="q2" start="a77577891720" end="a81719563800" flags="IsRangeMarker" locked="0" timestamp="1670393147" cue="0"/>
        <Location id="39135" name="i1" start="a82436418120" end="a84929161800" flags="IsRangeMarker" locked="0" timestamp="1670393321" cue="0"/>
        <Location id="39144" name="i2" start="a85273870920" end="a88021641960" flags="IsRangeMarker" locked="0" timestamp="1670393334" cue="0"/>
        <Location id="44054" name="i3" start="a88503690240" end="a89996563440" flags="IsRangeMarker" locked="0" timestamp="1670393623" cue="0"/>
      </Locations>
    </MementoCommand>
    <MementoCommand obj-id="49" type-name="SelectionMemento">
      <SelectionMemento mouse-mode="MouseObject" zoom="1040" left-frame="13775097" y-origin="0">
        <Selection>
          <Regions>
            <Region id="42612"/>
          </Regions>
          <Marker id="39135" start="0"/>
        </Selection>
      </SelectionMemento>
      <SelectionMemento mouse-mode="MouseObject" zoom="1040" left-frame="13775097" y-origin="0">
        <Selection>
          <Regions>
            <Region id="42612"/>
          </Regions>
          <Marker id="39135" start="0"/>
        </Selection>
      </SelectionMemento>
    </MementoCommand>
  </UndoTransaction>
</UndoHistory>
